Chapter 3 常用指令 | 社會科學統計方法
…
tmp <- strsplit(c(document,doc), split=" ")

tmp %>% 
  unlist() %>% 
  as_tibble() %>% 
  count(value) %>% 
  arrange(desc(n))

## # A tibble: 633 x 2
##    value     n
##    <chr> <int>
##  1 of       76
##  2 the      75
##  3 to       64
##  4 and      55
##  5 our      25
##  6 for      20
##  7 has      20
##  8 their    20
##  9 He       18
## 10 in       18
## # ... with 623 more rows
…
